Hybrid OA publishing output from first authors — cc_articles • hoaddata
…
    country_code
The country where this institution is located, represented as an ISO two-letter country code. (OpenAlex field `country_code` and extra country extraction)

    ror
ROR Organizational ID

To our knowledge, OpenAlex does not provide information about corresponding
 authors and their affiliation.

    Examples

# Hybrid OA articles with lead author from Uni Göttingen
cc_articles[cc_articles$ror %in% "https://ror.org/01y9bpm73",]
#> # A tibble: 2,579 × 6
#>    doi                     issn_l    cr_year cc          country_code ror       
#>    <chr>                   <chr>       <int> <chr>       <chr>        <chr>     
#>  1 10.1002/1873-3468.13978 0014-5793    2020 CC BY-NC-ND DE           https://r…
#>  2 10.1002/1873-3468.14089 0014-5793    2021 CC BY-NC-ND DE           https://r…
#>  3 10.1002/1873-3468.14671 0014-5793    2023 CC BY-NC-ND DE           https://r…
#>  4 10.1002/adem.202201914  1438-1656    2023 CC BY-NC-ND DE           https://r…
#>  5 10.1002/adfm.202313619  1616-301X    2024 CC BY       DE           https://r…
#>  6 10.1002/adfm.202315559  1616-301X    2023 CC BY-NC    DE           https://r…
#>  7 10.1002/adfm.202409432  1616-301X    2024 CC BY-NC    DE           https://r…
#>  8 10.1002/adma.201907693  0935-9648    2020 CC BY       DE           https://r…
#>  9 10.1002/adma.202104075  0935-9648    2021 CC BY       DE           https://r…
#> 10 10.1002/adma.202211279  0935-9648    2023 CC BY-NC    DE           https://r…
#> # ℹ 2,569 more rows
…
