Prevalence of Creative Commons licenses by variant, year and journal — cc_jn_ind • hoaddata
…
    cc_total
Number of articles under Creative Commons variant

    jn_all
Yearly journal output

    prop
Proportion of CC licensed articles

    Examples

cc_jn_ind
#> # A tibble: 43,752 × 6
#>    cr_journal_id cr_year cc          cc_total jn_all    prop
#>            <int> <fct>   <fct>          <int>  <int>   <dbl>
#>  1        144347 2019    NA                 0    256 0      
#>  2         98185 2021    CC BY              1    256 0.00391
#>  3         98185 2021    CC BY-NC-ND        1    256 0.00391
#>  4        208685 2021    CC BY-NC-ND        1    256 0.00391
#>  5         24919 2019    CC BY-NC-ND        1    256 0.00391
#>  6          3428 2018    CC BY-SA           1    256 0.00391
#>  7          3428 2018    CC BY-NC-ND        3    256 0.0117 
#>  8            16 2018    CC BY-NC           3    256 0.0117 
#>  9          5668 2022    CC BY              3    256 0.0117 
#> 10          3428 2018    CC BY-NC-SA        3    256 0.0117 
#> # … with 43,742 more rows
…
