…
``` r
jct_hybrid_jns
```

## Format

An object of class `tbl_df` (inherits from `tbl`, `data.frame`) with
487805 rows and 4 columns.

## Examples

``` r
jct_hybrid_jns
#> # A tibble: 721,388 × 4
#>    issn_l    issn      esac_publisher            esac_id      
#>    <chr>     <chr>     <chr>                     <chr>        
#>  1 0001-4842 0001-4842 American Chemical Society acs2023titech
#>  2 0001-4842 1520-4898 American Chemical Society acs2023titech
#>  3 2643-6728 2643-6728 American Chemical Society acs2023titech
#>  4 2692-1952 2692-1952 American Chemical Society acs2023titech
#>  5 2576-6422 2576-6422 American Chemical Society acs2023titech
#>  6 2637-6113 2637-6113 American Chemical Society acs2023titech
#>  7 2574-0962 2574-0962 American Chemical Society acs2023titech
#>  8 2771-9545 2771-9545 American Chemical Society acs2023titech
#>  9 1944-8244 1944-8244 American Chemical Society acs2023titech
#> 10 1944-8244 1944-8252 American Chemical Society acs2023titech
#> # ℹ 721,378 more rows
```
