Hybrid Journals: Venues Metadata — jct_oalex_venues • hoaddata
…
    This datasets contains information about journals. These journals come from
the Journal Checker Tool.

    Usage

jct_oalex_venues

    Format

    An object of class tbl_df (inherits from tbl, data.frame) with 12966 rows and 3 columns.

    Examples

jct_oalex_venues
#> # A tibble: 13,113 × 3
#>    issn_l    display_name                                           homepage_url
#>    <chr>     <chr>                                                  <chr>       
#>  1 1477-7835 Management of Environmental Quality: An International… NA          
#>  2 0032-6895 Matériaux &amp; Techniques                             NA          
#>  3 1326-0111 The Australian Journal of Indigenous Education         NA          
#>  4 2948-1198 Nature Chemical Engineering                            NA          
#>  5 1875-984X Global Responsibility to Protect                       NA          
#>  6 1933-6586 Medical Acupuncture                                    NA          
#>  7 1543-3633 Cognitive and Behavioral Neurology                     NA          
#>  8 0954-139X Reviews in Medical Microbiology                        NA          
#>  9 2833-115X Finance and Space                                      NA          
#> 10 2200-6974 Australian Journal of Career Development               NA          
#> # ℹ 13,103 more rows
…
