…
``` r
jct_oalex_venues
```

## Format

An object of class `tbl_df` (inherits from `tbl`, `data.frame`) with
12966 rows and 3 columns.

## Examples

``` r
jct_oalex_venues
#> # A tibble: 13,361 × 3
#>    issn_l    display_name homepage_url
#>    <chr>     <list>       <chr>       
#>  1 2752-6402 <chr [1]>    NA          
#>  2 3050-2969 <chr [1]>    NA          
#>  3 0003-9160 <chr [1]>    NA          
#>  4 1871-5230 <chr [1]>    NA          
#>  5 0965-4283 <chr [1]>    NA          
#>  6 2772-5472 <chr [1]>    NA          
#>  7 0016-1136 <chr [1]>    NA          
#>  8 1878-5476 <chr [1]>    NA          
#>  9 0927-3131 <chr [1]>    NA          
#> 10 2753-8702 <chr [1]>    NA          
#> # ℹ 13,351 more rows
```
