First author country affiliations per journal, year and Creative Commons license — jn_aff • hoaddata
…
    cc
Normalized Creative Commons variant. NA represents articles, which were not provided under a CC license

    articles_under_cc_variant
Number of articles under Creative Commons variant, grouped by journal, year and country affiliation

    articles_total
Yearly journal output by year and country affiliation

    Examples

# Country output China vs Germany in Scientometrics (ISSN-L: 0138-9130)
  subset(jn_aff,
    issn_l %in% "0138-9130" & country_code %in% c("DE", "CN"))
#> # A tibble: 32 × 6
#>    issn_l    cr_year country_code cc    articles_under_cc_variant articles_total
#>    <chr>       <int> <chr>        <chr>                     <int>          <int>
#>  1 0138-9130    2025 DE           CC BY                         2              2
#>  2 0138-9130    2025 CN           NA                            5              5
#>  3 0138-9130    2024 CN           NA                           76             80
#>  4 0138-9130    2024 DE           NA                            2             19
#>  5 0138-9130    2024 CN           CC BY                         4             80
#>  6 0138-9130    2024 DE           CC BY                        17             19
#>  7 0138-9130    2023 CN           NA                           75             79
#>  8 0138-9130    2023 CN           CC BY                         4             79
#>  9 0138-9130    2023 DE           CC BY                        15             15
#> 10 0138-9130    2022 CN           NA                           98            103
#> # ℹ 22 more rows
…
