Prevalence of Creative Commons licenses by variant, year and journal — jn_ind • hoaddata
…
    cc_total
Number of articles under Creative Commons variant

    jn_all
Yearly journal output

    prop
Proportion of CC licensed articles

    Examples

jn_ind
#> # A tibble: 166,744 × 6
#>    issn_l    cr_year cc       cc_total jn_all    prop
#>    <chr>     <fct>   <fct>       <int>  <int>   <dbl>
#>  1 0001-0782 2017    NA              0    281 0      
#>  2 0001-0782 2018    NA              0    302 0      
#>  3 0001-0782 2019    NA              0    280 0      
#>  4 0001-0782 2020    NA              0    293 0      
#>  5 0001-0782 2021    NA              0    318 0      
#>  6 0001-0782 2022    NA              0    295 0      
#>  7 0001-0782 2023    NA              0    281 0      
#>  8 0001-0782 2024    NA              0    273 0      
#>  9 0001-0782 2025    NA              0     63 0      
#> 10 0001-1541 2017    CC BY-NC        4    432 0.00926
#> # ℹ 166,734 more rows
…
