…
  Number of articles under Creative Commons variant

- jn_all:

  Yearly journal output

- prop:

  Proportion of CC licensed articles

## Examples

``` r
jn_ind
#> # A tibble: 190,425 × 6
#>    issn_l    cr_year cc          cc_total jn_all    prop
#>    <chr>     <fct>   <fct>          <int>  <int>   <dbl>
#>  1 0001-0782 2017    CC BY-NC-SA        1    281 0.00356
#>  2 0001-0782 2017    CC BY-SA           1    281 0.00356
#>  3 0001-0782 2017    CC BY-NC           2    281 0.00712
#>  4 0001-0782 2017    CC BY              2    281 0.00712
#>  5 0001-0782 2017    CC BY-NC-ND        3    281 0.0107 
#>  6 0001-0782 2018    CC BY              3    302 0.00993
#>  7 0001-0782 2018    CC BY-NC-SA        2    302 0.00662
#>  8 0001-0782 2019    CC BY              6    280 0.0214 
#>  9 0001-0782 2019    CC BY-SA           1    280 0.00357
#> 10 0001-0782 2019    CC BY-NC-ND        4    280 0.0143 
#> # ℹ 190,415 more rows
```
