…
- cr_journal_id:

  Crossref journal ID

- issn:

  International Standard Serial Number (ISSN), a ID to refer to a
  specific journal's media version

## Examples

``` r
oam_hybrid_jns
#> # A tibble: 14,603 × 3
#>    vertrag                    issn_l    issn     
#>    <chr>                      <chr>     <chr>    
#>  1 De Gruyter (SUB Göttingen) 0306-0322 0306-0322
#>  2 De Gruyter (SUB Göttingen) 0306-0322 1865-8717
#>  3 De Gruyter (SUB Göttingen) 0003-5696 0003-5696
#>  4 De Gruyter (SUB Göttingen) 0003-5696 1613-0421
#>  5 De Gruyter (SUB Göttingen) 1438-2091 1438-2091
#>  6 De Gruyter (SUB Göttingen) 1438-2091 1868-9426
#>  7 De Gruyter (SUB Göttingen) 0232-8461 0232-8461
#>  8 De Gruyter (SUB Göttingen) 0232-8461 2196-6761
#>  9 De Gruyter (SUB Göttingen) 0003-6390 0003-6390
#> 10 De Gruyter (SUB Göttingen) 0003-6390 2156-7093
#> # ℹ 14,593 more rows
```
